[Championship]
Name=Random Simulation 7
Year=1395

[Score]
1=1413
2=29
3=1674
4=1176
5=134
6=1630
7=686
8=820
9=276
10=1723
11=2
12=156
13=1082
14=1312
15=1157
16=1240
17=1006
18=1848
19=940
20=179
21=1160
22=1825
23=324
24=450
25=203
26=713
27=281
28=1153
29=1180
30=1475
31=1520
32=233
33=1841
34=1056
35=1453
36=35
37=30
38=1710
*=0

[Circuits]
Circuit=ERXTQFUUTUU;W0OEN;Road;AntiClockwise;75861;628
Circuit=AO7PNCODUUC;JMIV WOW XRV;Street;AntiClockwise;90406;394
Circuit=N7D;WFU0HRFQAZUDF2E97F;Street;ClockWise;55665;389
Circuit=E2F 3P;FUL1;Street;ClockWise;25624;402
Circuit=TX2BGQFJM;HYYOI;Street;ClockWise;58630;428
Circuit=YVT;U4BB8X2M;Race;ClockWise;75585;150
Circuit=LA1QG S68T62Y VL5B;XXWEI;Road;AntiClockwise;44339;306
Circuit=RC XDKP;PT6Y7;Road;ClockWise;15970;969
Circuit=ZG07WL07SAUUHHV;4;Race;ClockWise;87035;287
Circuit=X0290VCJXYU ;2GNL;Road;ClockWise;91391;212
Circuit=ZRMRMN87R3UCG5NALQ2;6YHOKXP0R79P31CRNE;Race;AntiClockwise;70219;745
Circuit=XZAT;OCRQ8DBJ9G09IQV4FKP;Race;AntiClockwise;64581;188
Circuit=IFWA2WX61D4S95XBI;9A7RLROS;Road;AntiClockwise;72340;73
Circuit=2U09QJHVCDRM1MGP3;YII0 14EWJHCGZN;Race;AntiClockwise;39825;147
Circuit=9IO84 91CL 2;PSYCV9FLX8OA73 3W2K;Street;ClockWise;68989;15
Circuit=F16NU8HKHJ5LY3G;KMKA77H 9Q;Road;AntiClockwise;63250;817
Circuit=3KQIK9C G1;TFR89DW6N046IU;Race;ClockWise;11008;392
Circuit=OUNSON9JLJL4G;Z5RT;Road;AntiClockwise;1210;943
Circuit= OHZOU9VZDM 2 T;ENUEP ZB5B8V;Race;AntiClockwise;63917;441
Circuit=T FK52K0FD6Z;S ;Race;ClockWise;64049;391
Circuit= ZG4MXO;3Q63GRTQ5S25Z5W;Street;ClockWise;97627;429
Circuit=O B8IUL RTF78MX ;6BQUXEWOYED YNH29;Road;ClockWise;84076;867
Circuit=IQN X91S HKDOFK26Q;UPH 4G9E98H;Street;ClockWise;93464;114
Circuit=JF;Q8XD3OK3XZXVOMOSAQU;Race;AntiClockwise;83167;786
Circuit=CJFK8HT0RDX3DHQ;FRKLW1ZTWHXZMKXEC;Street;AntiClockwise;13527;120
Circuit=SE68J207JE8TNS;GMUWY0;Road;AntiClockwise;37861;183
Circuit=12RL2X23G1;Q26KNVP1JX3FOVS5;Race;AntiClockwise;30150;491
Circuit=J E34F7V0DPTD53P;J9PH;Race;AntiClockwise;63192;65
Circuit=2256JC;S7FV2J5Z8Z06R;Road;ClockWise;56008;743
Circuit=LWOBS0D6E4;HGQQN6KWR0VT8J7GI;Road;AntiClockwise;21022;119
Circuit=1CD6Y5YN05CSTP;K;Street;ClockWise;13933;571
Circuit=DR3VU5JPW1OQ0O; W14N;Race;AntiClockwise;87322;753
Circuit=HLT8 J8A9XDDL3D;IMDD0Y;Street;ClockWise;68542;397
Circuit=5PVBH3Y97;1FSZPX7TPAKVPT;Road;ClockWise;3745;546
Circuit=IVSSGUB;6T;Street;ClockWise;39534;552
Circuit=VBIPKG90FJABO81EYUQ;XAS6;Road;AntiClockwise;65056;902
Circuit=H69;0AL6BCW2M8T Y;Race;AntiClockwise;860;480
Circuit=PM;TN4QSC4ACFD;Race;ClockWise;74870;807
Circuit=OU5YVMWG0E;YN2TMER9BWUU8M6O6;Race;AntiClockwise;2532;203
Circuit=05R89AI;389NZN;Road;ClockWise;8939;279
Circuit=64A7MZ90H DZ9A;Y5;Street;AntiClockwise;95026;824
Circuit=W 9GALWX1N9Q65U;JCTC44KPYL7S;Race;AntiClockwise;89307;910
Circuit=O8;S8OWMNL ;Road;ClockWise;81109;302
Circuit=6LK82;US0OD2 RB74QXI;Race;ClockWise;11531;454
Circuit=9PDEDHJTAW;FXH4A;Street;ClockWise;50231;590
Circuit=9YNNYOR1H5QK2EPVL;SQQQZY4QO28E96DDRQ;Race;AntiClockwise;53539;867
Circuit=POZMQ;VXZWD8OS ZTI 0;Race;ClockWise;89065;555
Circuit=Y 3UNXOHBK9SA;GKPN3GZ9QCIL6M;Road;ClockWise;50601;148
Circuit=BW4FIRUHR01BILU;YT1A ZT1MC2;Street;AntiClockwise;69525;774
Circuit=IYUQJEM;SS1MGDV26Y9O;Street;AntiClockwise;33879;74
Circuit=GZRP288Z X DOPPO;H3OF HK6B;Race;ClockWise;19433;462
Circuit=NR9XFC03PR;83;Race;ClockWise;55337;974
Circuit=FKZXHS;U1ES;Road;AntiClockwise;30511;500
Circuit=R3JOR  Z6JSC2JQQFG;Y42E;Race;AntiClockwise;97813;678
Circuit=VXKDLDGS7YK09LJZR 6;C;Road;ClockWise;28992;53
Circuit=YL5SLC0LWH QFJ;IT795Q5JC 367HT BH;Road;AntiClockwise;20867;62
Circuit=YJAXSSU03EFWNDKI3B3;SG3DDH9J21;Race;ClockWise;34702;931
Circuit=QH1VQDD2C7X8;F0FJYRRR7UKTK9BO9J;Road;AntiClockwise;69636;787
Circuit=IBPDAB;VAMW;Street;AntiClockwise;90284;676
Circuit=EUYRBFEBODYGEHNF;BXBOQ6NZT9MB4CV A;Road;ClockWise;91434;836
Circuit=LBX8TP7EI505BPPZZ;2SH2 U;Street;ClockWise;18888;116
Circuit=IA6;1M384KX4EGDHTVV;Race;AntiClockwise;60571;68
Circuit=TCD6QI2RDXZ L;D61RR6NY4Q4UW;Road;AntiClockwise;58886;624
Circuit=CIK0;O;Street;AntiClockwise;36063;10
Circuit=II8S 3EV;L5JXC6WJ0SA13JQ4;Street;AntiClockwise;7619;403

[Drivers]
Driver=JBWMZB23SNO1N;12; S;WXSTYQ9RY;HardCore;105;58;190
Driver=H VQU8;23;0TOOSD2DZU8QNF0OGNH;8ZQGYQFB;Casual;549;963;530
Driver=2AJBQO60OSJL9B;28;KG14;B;Noob;228;736;77
Driver=WFWPBYO0FE73SI;29;8MRE3KK33VY18BLORF;J6;HardCore;269;275;659
Driver=FJ;76;32FLOV4;M64WQ Y2E4TMMEABDC;Noob;453;249;223
Driver=6J6 3083YI2;36;I4;A29M0W;Noob;676;736;93
Driver=ONZE2K;63;EZ O;1YDNX 5J8QRK24JJH;Noob;696;499;608
Driver=UYW3RW;21;3UQ987L;EN;Noob;444;918;213
Driver=RR97QK7KMOU0BHOX2EY;60;5MN6FVF;9NM3XL YJ6S;Core;168;623;550
Driver=C89PY3TEYXFV;12;010OAI;O6O TIGBFI3AJDYGF;Casual;574;794;688
Driver=5CHW37QJUE0YBV;40;VNC;ONV2HBVVCQ;Casual;208;395;183
Driver=LXNF0 J6UPWV0G PWS;30;SQO2M5GEZS;5BT39A;HardCore;764;418;114
Driver=3P 5;74;AV66CP5IW;64EHBE1UHNBPZ16N;HardCore;249;613;335
Driver=JZZ8O  E80OE7W SGYY;41;TOV7FAZXWWJR6;QTE12VDPLAU;HardCore;275;397;296
Driver=Y6M0KDAI9LRMEEXBBT9;13;75VECVML1KMTYWWU4G;DS4KWDH68;HardCore;227;873;324
Driver=2;11;WITY8IAF3QTBRIN;9PDV A5ZPSS;Casual;6;515;616
Driver=3H87QVVJQL1;35;MAT2CXZQ1WN5IQ0WF;5ZRZAP;Core;505;844;495
Driver=ZELTGS7IQ F;18;WV;HE;HardCore;655;286;41
Driver=PY DFV3HEH7JTZ;29;0845;MWP4UK0XYJ;Core;206;632;115
Driver=3C6H9 6ZMU;46;Y8NHBFDBVKVKCUR8J;6;Core;755;693;928
Driver=YUM11SA35907QFRBS8S;44;EOT9PKY8D9AS;OW1K5;HardCore;581;491;225
Driver=A46PUJ1PNNTF43L;25;51 0PH1;LHD17D7328WOIN5IW;Noob;873;878;444
Driver=TUIXRWBWW;19;JBYZRJWNB60;ES72EKM6PO1VGYRP;Noob;751;343;982
Driver=E3U7YWJC6W31EF;51;7LKJE6LCS33HGKT1;PNEHHX0WMSF;HardCore;440;548;331
Driver=5BZAUJR;44;53C6VCCG;2RX0YUX3NGLCJR;Casual;846;451;490
Driver=6EX0337UR8C;58;5UN0EN;N26;Casual;166;352;592
Driver=BEVBW4Y5786XDM;40;X3;7 ELE7HD;Noob;319;565;437
Driver=4P3RYYB7T4H;44;KQRHTUGQ17;REP0PTMRZCJ7XX9F;Casual;13;450;303
Driver=P8Y2EB6AEDS A;47;LRAS0;OAT4VUP3PKWZ4ZSB;Core;412;303;605
Driver=FOYWQ7CUQ3O4A7F8TRR;24;37KG41J3WHEFQ5;G9E;Core;742;882;846
Driver=AYV706;69;RIN;NPWF315WJZ;Core;40;15;779
Driver=8R49D9G;21;ND0M;ZISW3TTO8F GBLEU78L;Core;194;2;414
Driver=PJQ QXEJK;10;TO B3UT;9786BWRFP53Y3;Noob;190;380;288
Driver=SS671L2A;44;K0XR1QTSNON R0PSMU;HW10FBGD ;Noob;567;293;600
Driver=FEFHC;57;670BSBFSJ9HVK;T RQUMT;Casual;810;92;762

